{
  "project_info": {
    "project_number": "110766165755",
    "firebase_url": "https://leap-be-u.firebaseio.com",
    "project_id": "leap-be-u",
    "storage_bucket": "leap-be-u.appspot.com"
  },
  "client": [
    {
      "client_info": {
        "mobilesdk_app_id": "1:110766165755:android:cf9ff15aed660aa4",
        "android_client_info": {
          "package_name": "com.rockycamacho.beu.app"
        }
      },
      "oauth_client": [
        {
          "client_id": "110766165755-l35r9fc345isqd36q7oi3t0buea06riv.apps.googleusercontent.com",
          "client_type": 1,
          "android_info": {
            "package_name": "com.rockycamacho.beu.app",
            "certificate_hash": "149a1a7cafaa29fe52c4b25ec0c3e01cf43bce0c"
          }
        },
        {
          "client_id": "110766165755-o1i9s9j4qrn228ko5q25qbpm78i7gd2h.apps.googleusercontent.com",
          "client_type": 3
        }
      ],
      "api_key": [
        {
          "current_key": "AIzaSyBsiOJWy0sFuVUVZTD027OTq6yJIvJoadE"
        }
      ],
      "services": {
        "analytics_service": {
          "status": 1
        },
        "appinvite_service": {
          "status": 2,
          "other_platform_oauth_client": [
            {
              "client_id": "110766165755-o1i9s9j4qrn228ko5q25qbpm78i7gd2h.apps.googleusercontent.com",
              "client_type": 3
            }
          ]
        },
        "ads_service": {
          "status": 2
        }
      }
    }
  ],
  "configuration_version": "1"
}